\relax 
\providecommand\HyperFirstAtBeginDocument{\AtBeginDocument}
\HyperFirstAtBeginDocument{\ifx\hyper@anchor\@undefined
\global\let\oldcontentsline\contentsline
\gdef\contentsline#1#2#3#4{\oldcontentsline{#1}{#2}{#3}}
\global\let\oldnewlabel\newlabel
\gdef\newlabel#1#2{\newlabelxx{#1}#2}
\gdef\newlabelxx#1#2#3#4#5#6{\oldnewlabel{#1}{{#2}{#3}}}
\AtEndDocument{\ifx\hyper@anchor\@undefined
\let\contentsline\oldcontentsline
\let\newlabel\oldnewlabel
\fi}
\fi}
\global\let\hyper@last\relax 
\gdef\HyperFirstAtBeginDocument#1{#1}
\providecommand\HyField@AuxAddToFields[1]{}
\providecommand\HyField@AuxAddToCoFields[2]{}
\@writefile{toc}{\contentsline {section}{Research Interests}{1}{section*.1}}
\@writefile{toc}{\contentsline {section}{Education}{1}{section*.2}}
\@writefile{toc}{\contentsline {section}{Recent Work Experience}{1}{section*.3}}
\@writefile{toc}{\contentsline {section}{Programming Skills}{2}{section*.4}}
\@writefile{toc}{\contentsline {section}{Publications}{2}{section*.5}}
\@writefile{toc}{\contentsline {section}{Awards and Academic Achievements}{2}{section*.6}}
\@writefile{toc}{\contentsline {section}{Talks and Posters}{2}{section*.7}}
\@writefile{toc}{\contentsline {section}{Services}{3}{section*.8}}
\@writefile{toc}{\contentsline {section}{Teaching Experience}{3}{section*.9}}
\@writefile{toc}{\contentsline {section}{References}{3}{section*.10}}
\@writefile{toc}{\contentsline {section}{Immigration Status}{4}{section*.11}}
