\BOOKMARK [1][]{section*.1}{\376\377\000O\000b\000j\000e\000c\000t\000i\000v\000e}{}% 1
\BOOKMARK [1][]{section*.2}{\376\377\000E\000d\000u\000c\000a\000t\000i\000o\000n}{}% 2
\BOOKMARK [1][]{section*.3}{\376\377\000R\000e\000c\000e\000n\000t\000\040\000W\000o\000r\000k\000\040\000E\000x\000p\000e\000r\000i\000e\000n\000c\000e}{}% 3
\BOOKMARK [1][]{section*.4}{\376\377\000P\000r\000o\000g\000r\000a\000m\000m\000i\000n\000g\000\040\000S\000k\000i\000l\000l\000s}{}% 4
\BOOKMARK [1][]{section*.5}{\376\377\000P\000u\000b\000l\000i\000c\000a\000t\000i\000o\000n\000s}{}% 5
\BOOKMARK [1][]{section*.6}{\376\377\000A\000w\000a\000r\000d\000s\000\040\000a\000n\000d\000\040\000A\000c\000a\000d\000e\000m\000i\000c\000\040\000A\000c\000h\000i\000e\000v\000e\000m\000e\000n\000t\000s}{}% 6
\BOOKMARK [1][]{section*.7}{\376\377\000T\000a\000l\000k\000s}{}% 7
\BOOKMARK [1][]{section*.8}{\376\377\000S\000e\000r\000v\000i\000c\000e\000s}{}% 8
\BOOKMARK [1][]{section*.9}{\376\377\000T\000e\000a\000c\000h\000i\000n\000g\000\040\000E\000x\000p\000e\000r\000i\000e\000n\000c\000e}{}% 9
\BOOKMARK [1][]{section*.10}{\376\377\000I\000m\000m\000i\000g\000r\000a\000t\000i\000o\000n\000\040\000S\000t\000a\000t\000u\000s}{}% 10
